<?xml version="1.0" encoding="utf-8"?>
<!-- Generator: Adobe Illustrator 19.0.0, SVG Export Plug-In . SVG Version: 6.00 Build 0)  -->
<svg version="1.1" id="Layer_1" xmlns="http://www.w3.org/2000/svg" xmlns:xlink="http://www.w3.org/1999/xlink" x="0px" y="0px"
	 width="60px" height="60px" viewBox="0 0 60 60" style="enable-background:new 0 0 60 60;" xml:space="preserve">
<style type="text/css">
	.st0{fill:#333333;}
</style>
<g>
	<path id="XMLID_9_" class="st0" d="M51.6,7.5H8.4c-0.5,0-0.9,0.4-0.9,0.9v43.2c0,0.5,0.4,0.9,0.9,0.9h36.7c0.5,0,0.9-0.4,0.9-0.9
		c0-0.5-0.4-0.9-0.9-0.9H9.3V9.3h41.3v42.3c0,0.5,0.4,0.9,0.9,0.9c0.5,0,0.9-0.4,0.9-0.9V8.4C52.5,7.9,52.1,7.5,51.6,7.5z"/>
	<path class="st0" d="M17.5,17c-1.9,0-3.5,1.6-3.5,3.5c0,1.9,1.6,3.5,3.5,3.5c1.9,0,3.5-1.6,3.5-3.5C21.1,18.6,19.5,17,17.5,17z
		 M17.5,22.2c-0.9,0-1.7-0.8-1.7-1.7c0-0.9,0.8-1.7,1.7-1.7c0.9,0,1.7,0.8,1.7,1.7C19.2,21.5,18.5,22.2,17.5,22.2z"/>
	<path id="XMLID_6_" class="st0" d="M45.2,19.6H23.8c-0.5,0-0.9,0.4-0.9,0.9c0,0.5,0.4,0.9,0.9,0.9h21.4c0.5,0,0.9-0.4,0.9-0.9
		C46.1,20,45.7,19.6,45.2,19.6z"/>
	<path id="XMLID_5_" class="st0" d="M17.5,26.5c-0.5,0-0.9,0.4-0.9,0.9c0,0.5,0.4,0.9,0.9,0.9c0.9,0,1.7,0.8,1.7,1.7
		c0,0.9-0.8,1.7-1.7,1.7c-0.9,0-1.7-0.8-1.7-1.7c0-0.5-0.4-0.9-0.9-0.9c-0.5,0-0.9,0.4-0.9,0.9c0,1.9,1.6,3.5,3.5,3.5
		c1.9,0,3.5-1.6,3.5-3.5S19.5,26.5,17.5,26.5z"/>
	<path id="XMLID_4_" class="st0" d="M45.2,29.1H23.8c-0.5,0-0.9,0.4-0.9,0.9s0.4,0.9,0.9,0.9h21.4c0.5,0,0.9-0.4,0.9-0.9
		S45.7,29.1,45.2,29.1z"/>
	<path class="st0" d="M17.5,36c-1.9,0-3.5,1.6-3.5,3.5c0,1.9,1.6,3.5,3.5,3.5c1.9,0,3.5-1.6,3.5-3.5C21.1,37.5,19.5,36,17.5,36z
		 M17.5,41.1c-0.9,0-1.7-0.8-1.7-1.7c0-0.9,0.8-1.7,1.7-1.7c0.9,0,1.7,0.8,1.7,1.7C19.2,40.4,18.5,41.1,17.5,41.1z"/>
	<path id="XMLID_1_" class="st0" d="M45.2,38.5H23.8c-0.5,0-0.9,0.4-0.9,0.9c0,0.5,0.4,0.9,0.9,0.9h21.4c0.5,0,0.9-0.4,0.9-0.9
		C46.1,39,45.7,38.5,45.2,38.5z"/>
</g>
</svg>
