<?xml version="1.0" encoding="utf-8"?>
<!-- Generator: Adobe Illustrator 19.0.0, SVG Export Plug-In . SVG Version: 6.00 Build 0)  -->
<svg version="1.1" id="Layer_1" xmlns="http://www.w3.org/2000/svg" xmlns:xlink="http://www.w3.org/1999/xlink" x="0px" y="0px"
	 width="18px" height="18px" viewBox="0 0 18 18" style="enable-background:new 0 0 18 18;" xml:space="preserve">
<style type="text/css">
	.st0{fill:#AAAAAA;}
</style>
<g id="XMLID_1_">
	<path class="st0" d="M14.5,3H13V1.4C13,1.2,12.8,1,12.6,1h-1.3C11.2,1,11,1.2,11,1.4V3H7V1.4C7,1.2,6.8,1,6.6,1H5.4
		C5.2,1,5,1.2,5,1.4V3H3.5C2.7,3,2,3.7,2,4.5v11C2,16.3,2.7,17,3.5,17h11c0.8,0,1.5-0.7,1.5-1.5v-11C16,3.7,15.3,3,14.5,3z
		 M14.3,15.5H3.7c-0.1,0-0.2-0.1-0.2-0.2V6h11v9.3C14.5,15.4,14.4,15.5,14.3,15.5z M12.7,9.2l-4.4,4.4c-0.1,0.1-0.4,0.1-0.5,0
		l-2.3-2.4c-0.1-0.1-0.1-0.4,0-0.5L6,10c0.1-0.1,0.4-0.1,0.5,0L8,11.4L11.4,8c0.1-0.1,0.4-0.1,0.5,0l0.7,0.7
		C12.8,8.8,12.8,9.1,12.7,9.2z"/>
</g>
</svg>
