<?xml version="1.0" encoding="utf-8"?>
<!-- Generator: Adobe Illustrator 19.0.0, SVG Export Plug-In . SVG Version: 6.00 Build 0)  -->
<svg version="1.1" id="Layer_1" xmlns="http://www.w3.org/2000/svg" xmlns:xlink="http://www.w3.org/1999/xlink" x="0px" y="0px"
	 width="14px" height="14px" viewBox="1 -2 14 14" style="enable-background:new 1 -2 14 14;" xml:space="preserve">
<style type="text/css">
	.st0{fill:#999999;}
</style>
<path class="st0" d="M10.4,4.6L7,1.2C6.8,1,6.4,1,6.2,1.2L5.6,1.7C5.4,2,5.4,2.4,5.6,2.6L8,5L5.6,7.4C5.4,7.6,5.4,8,5.6,8.2l0.6,0.6
	C6.4,9,6.8,9,7,8.8l3.4-3.4C10.6,5.2,10.6,4.8,10.4,4.6L10.4,4.6z"/>
</svg>
