<?xml version="1.0" encoding="utf-8"?>
<!-- Generator: Adobe Illustrator 19.0.0, SVG Export Plug-In . SVG Version: 6.00 Build 0)  -->
<svg version="1.1" id="Layer_1" xmlns="http://www.w3.org/2000/svg" xmlns:xlink="http://www.w3.org/1999/xlink" x="0px" y="0px"
	 width="37px" height="37px" viewBox="0 0 37 37" style="enable-background:new 0 0 37 37;" xml:space="preserve">
<g>
	<path id="XMLID_2_" d="M27,11c-1.8-1.8-4.6-1.8-6.4,0l-3.2,3.2c-0.3,0.3-0.3,0.7,0,1s0.7,0.3,1,0l3.2-3.2c0.6-0.6,1.4-0.9,2.2-0.9
		c0.8,0,1.6,0.3,2.2,0.9c0.6,0.6,0.9,1.4,0.9,2.2c0,0.8-0.3,1.6-0.9,2.2l-4.2,4.2c-1.2,1.2-3.2,1.2-4.4,0c-0.3-0.3-0.7-0.3-1,0
		c-0.3,0.3-0.3,0.7,0,1c0.9,0.9,2,1.3,3.2,1.3c1.2,0,2.3-0.4,3.2-1.3l4.2-4.2c0.8-0.8,1.3-2,1.3-3.2C28.3,12.9,27.9,11.8,27,11z"/>
	<path id="XMLID_1_" d="M18.7,23.7L16,26.4c-0.6,0.6-1.4,0.9-2.2,0.9c-0.8,0-1.6-0.3-2.2-0.9c-1.2-1.2-1.2-3.2,0-4.4l3.9-3.9
		c0.6-0.6,1.4-0.9,2.2-0.9c0.8,0,1.6,0.3,2.2,0.9c0.3,0.3,0.7,0.3,1,0c0.3-0.3,0.3-0.7,0-1c-1.8-1.8-4.6-1.8-6.4,0L10.6,21
		c-0.8,0.8-1.3,2-1.3,3.2c0,1.2,0.5,2.3,1.3,3.2c0.8,0.8,2,1.3,3.2,1.3c1.2,0,2.3-0.5,3.2-1.3l2.7-2.7c0.3-0.3,0.3-0.7,0-1
		C19.4,23.4,19,23.4,18.7,23.7z"/>
</g>
</svg>
