<?xml version="1.0" encoding="utf-8"?>
<!-- Generator: Adobe Illustrator 19.0.0, SVG Export Plug-In . SVG Version: 6.00 Build 0)  -->
<svg version="1.1" id="Layer_1" xmlns="http://www.w3.org/2000/svg" xmlns:xlink="http://www.w3.org/1999/xlink" x="0px" y="0px"
	 width="14px" height="14px" viewBox="0 0 14 14" style="enable-background:new 0 0 14 14;" xml:space="preserve">
<style type="text/css">
	.st0{fill:#068467;}
</style>
<path class="st0" d="M9.4,6.6L6,3.2c-0.2-0.2-0.6-0.2-0.8,0L4.6,3.7C4.4,4,4.4,4.4,4.6,4.6L7,7L4.6,9.4c-0.2,0.2-0.2,0.6,0,0.8
	l0.6,0.6c0.2,0.2,0.6,0.2,0.8,0l3.4-3.4C9.6,7.2,9.6,6.8,9.4,6.6L9.4,6.6z"/>
</svg>
