<?xml version="1.0" encoding="utf-8"?>
<!-- Generator: Adobe Illustrator 19.0.0, SVG Export Plug-In . SVG Version: 6.00 Build 0)  -->
<svg version="1.1" id="Layer_1" xmlns="http://www.w3.org/2000/svg" xmlns:xlink="http://www.w3.org/1999/xlink" x="0px" y="0px"
	 width="151px" height="49px" viewBox="70 -19 151 49" style="enable-background:new 70 -19 151 49;" xml:space="preserve">
<style type="text/css">
	.st0{fill:#AAAAAA;}
	.st1{fill:#666666;}
</style>
<g>
	<path class="st0" d="M196.5,30h-102C81,30,70,19,70,5.5S81-19,94.5-19h102C210-19,221-8,221,5.5S210,30,196.5,30z M94.5-18
		C81.5-18,71-7.5,71,5.5S81.5,29,94.5,29h102c13,0,23.5-10.5,23.5-23.5S209.5-18,196.5-18H94.5z"/>
	<g>
		<path class="st1" d="M126.5,7.6h-4.3l-0.8,2.3H120l3.7-9.7h1.4l3.6,9.7h-1.4L126.5,7.6z M126.1,6.7l-1.8-5l-1.8,5H126.1z"/>
		<path class="st1" d="M129.2,1.2V0.1h2.8v9.9h-1.3V1.2H129.2z"/>
		<path class="st1" d="M138.7,8.9h3.5v1h-4.8V0.1h1.3V8.9z"/>
		<path class="st1" d="M150.6,6.4h-6.1c0,0.9,0.3,1.5,0.7,2c0.5,0.4,1,0.7,1.7,0.7c0.6,0,1.1-0.2,1.5-0.5c0.4-0.3,0.7-0.7,0.8-1.3
			h1.4c-0.1,0.5-0.3,1-0.6,1.4s-0.7,0.7-1.3,1c-0.5,0.2-1.1,0.4-1.7,0.4c-0.7,0-1.4-0.2-2-0.5s-1-0.8-1.3-1.4
			c-0.3-0.6-0.5-1.3-0.5-2.1s0.2-1.5,0.5-2.1c0.3-0.6,0.8-1.1,1.3-1.4c0.6-0.3,1.2-0.5,2-0.5c0.7,0,1.4,0.2,2,0.5
			c0.6,0.3,1,0.7,1.3,1.3c0.3,0.5,0.4,1.1,0.4,1.8C150.6,5.9,150.6,6.2,150.6,6.4z M149,4.3c-0.2-0.4-0.5-0.7-0.9-0.9
			c-0.4-0.2-0.8-0.3-1.2-0.3c-0.7,0-1.3,0.2-1.8,0.7c-0.5,0.4-0.7,1.1-0.8,1.9h4.9C149.4,5.2,149.3,4.7,149,4.3z"/>
		<path class="st1" d="M155.3,8.6l2.4-6.3h1.4l-3,7.7h-1.5l-3-7.7h1.4L155.3,8.6z"/>
		<path class="st1" d="M167.3,6.4h-6.1c0,0.9,0.3,1.5,0.7,2c0.5,0.4,1,0.7,1.7,0.7c0.6,0,1.1-0.2,1.5-0.5c0.4-0.3,0.7-0.7,0.8-1.3
			h1.4c-0.1,0.5-0.3,1-0.6,1.4c-0.3,0.4-0.7,0.7-1.3,1s-1.1,0.4-1.7,0.4c-0.7,0-1.4-0.2-2-0.5s-1-0.8-1.3-1.4
			c-0.3-0.6-0.5-1.3-0.5-2.1s0.2-1.5,0.5-2.1c0.3-0.6,0.8-1.1,1.3-1.4c0.6-0.3,1.2-0.5,2-0.5c0.7,0,1.4,0.2,2,0.5
			c0.6,0.3,1,0.7,1.3,1.3c0.3,0.5,0.4,1.1,0.4,1.8C167.3,5.9,167.3,6.2,167.3,6.4z M165.8,4.3c-0.2-0.4-0.5-0.7-0.9-0.9
			c-0.4-0.2-0.8-0.3-1.2-0.3c-0.7,0-1.3,0.2-1.8,0.7c-0.5,0.4-0.7,1.1-0.8,1.9h4.9C166.1,5.2,166,4.7,165.8,4.3z"/>
		<path class="st1" d="M170.3-0.4V9.9H169V-0.4H170.3z"/>
	</g>
</g>
</svg>
