<?xml version="1.0" encoding="utf-8"?>
<!-- Generator: Adobe Illustrator 19.0.0, SVG Export Plug-In . SVG Version: 6.00 Build 0)  -->
<svg version="1.1" id="Layer_1" xmlns="http://www.w3.org/2000/svg" xmlns:xlink="http://www.w3.org/1999/xlink" x="0px" y="0px"
	 width="105px" height="105px" viewBox="0 0 105 105" style="enable-background:new 0 0 105 105;" xml:space="preserve">
<style type="text/css">
	.st0{fill:url(#SVGID_1_);}
	.st1{fill:#FFFFFF;}
</style>
<linearGradient id="SVGID_1_" gradientUnits="userSpaceOnUse" x1="52.5" y1="2.625" x2="52.5" y2="100.3836">
	<stop  offset="0" style="stop-color:#479CFC"/>
	<stop  offset="1" style="stop-color:#3B76D2"/>
</linearGradient>
<path class="st0" d="M0,23.3C0,10.4,10.4,0,23.3,0h58.4C94.6,0,105,10.4,105,23.3v58.4c0,12.9-10.4,23.3-23.3,23.3H23.3
	C10.4,105,0,94.6,0,81.7V23.3z"/>
<g>
	<g>
		<path class="st1" d="M23.7,33.9H25v-3h-1.2v-1.4h7.2v1.4h-1.1v2.8c0.2,0,0.5,0,0.7,0c0.2,0,0.5,0,0.7,0l0.1,1.4
			c-0.6,0-1.2,0.1-1.8,0.1c-0.7,0-1.3,0.1-2,0.1c-0.7,0-1.4,0-2.1,0s-1.3,0-1.9,0V33.9z M34.2,36.1v3.7h-6.5v1h6.8v1.4H26v-3.7h6.5
			v-1h-6.5v-1.4H34.2z M28.2,33.8v-2.9h-1.5v2.9L28.2,33.8z M34.2,35.5h-1.8V29h1.8V35.5z"/>
		<path class="st1" d="M48.3,36.3v1.5h-5.1V42h-1.8v-4.3h-5.1v-1.5H48.3z M42.3,33c-0.1,0.1-0.2,0.3-0.5,0.5
			c-0.3,0.2-0.6,0.4-1.1,0.6c-0.2,0.1-0.4,0.2-0.7,0.3c-0.2,0.1-0.5,0.2-0.8,0.4s-0.5,0.2-0.8,0.3c-0.3,0.1-0.5,0.2-0.7,0.3L37.1,34
			c0.5-0.2,1-0.4,1.6-0.7c0.5-0.3,1.1-0.5,1.5-0.8c0.4-0.2,0.8-0.5,0.9-0.8s0.3-0.6,0.3-1.1v-1.2h1.8v1.2c0,0.4,0.1,0.8,0.3,1.1
			s0.5,0.5,0.9,0.8c0.5,0.3,1,0.5,1.5,0.8c0.5,0.3,1.1,0.5,1.6,0.7l-0.7,1.4c-0.2-0.1-0.5-0.2-0.7-0.3c-0.3-0.1-0.5-0.2-0.8-0.3
			c-0.3-0.1-0.5-0.2-0.8-0.4c-0.2-0.1-0.5-0.2-0.7-0.3c-0.5-0.2-0.8-0.4-1.1-0.6C42.6,33.3,42.4,33.1,42.3,33L42.3,33z"/>
		<path class="st1" d="M53.2,38.9c-0.6,0-1.1-0.1-1.5-0.3c-0.4-0.2-0.8-0.4-1-0.8c-0.3-0.3-0.5-0.7-0.6-1.2c-0.1-0.5-0.2-1-0.2-1.5
			v-1.6c0-0.5,0.1-1,0.2-1.5s0.3-0.9,0.6-1.2c0.3-0.3,0.6-0.6,1-0.8c0.4-0.2,0.9-0.3,1.5-0.3c0.6,0,1.1,0.1,1.5,0.3
			c0.4,0.2,0.8,0.4,1,0.8c0.3,0.3,0.5,0.7,0.6,1.1c0.1,0.4,0.2,0.9,0.2,1.4h2V29h1.8v13h-1.8v-7h-2v0.2c0,0.6-0.1,1.1-0.2,1.5
			c-0.1,0.5-0.3,0.9-0.6,1.2c-0.3,0.3-0.6,0.6-1,0.8C54.3,38.9,53.8,38.9,53.2,38.9z M53.2,31.4c-0.6,0-1,0.2-1.3,0.6
			s-0.4,1-0.4,1.8V35c0,0.8,0.1,1.4,0.4,1.8c0.3,0.4,0.7,0.6,1.3,0.6c0.6,0,1-0.2,1.3-0.6c0.3-0.4,0.4-1,0.4-1.8v-1.1
			c0-0.8-0.1-1.4-0.4-1.8S53.8,31.4,53.2,31.4z"/>
		<path class="st1" d="M62.7,36.7c1.1,0,2,0,2.9,0c0.8,0,1.6,0,2.3,0s1.3,0,1.8-0.1c0.5,0,1-0.1,1.4-0.1l0.1,1.4
			c-0.4,0.1-0.9,0.1-1.5,0.1c-0.6,0-1.2,0.1-2,0.1v3.6h-1.8v-3.5c-0.5,0-1,0-1.5,0s-1.1,0-1.7,0V36.7z M65.9,30v-1.2h1.8V30h2.8v1.5
			H63V30H65.9z M66.8,36.1c-0.6,0-1-0.1-1.4-0.2c-0.4-0.1-0.7-0.2-1-0.4c-0.3-0.2-0.5-0.4-0.6-0.6c-0.1-0.2-0.2-0.5-0.2-0.7v-0.4
			c0-0.3,0.1-0.5,0.2-0.7c0.1-0.2,0.3-0.4,0.6-0.6c0.3-0.2,0.6-0.3,1-0.4c0.4-0.1,0.9-0.2,1.4-0.2c0.6,0,1,0.1,1.4,0.2
			c0.4,0.1,0.7,0.2,1,0.4c0.3,0.2,0.5,0.4,0.6,0.6c0.1,0.2,0.2,0.5,0.2,0.7v0.4c0,0.3-0.1,0.5-0.2,0.7s-0.3,0.4-0.6,0.6
			c-0.3,0.2-0.6,0.3-1,0.4C67.9,36,67.4,36.1,66.8,36.1z M66.8,33.2c-0.6,0-1,0.1-1.2,0.2c-0.2,0.1-0.4,0.3-0.4,0.5V34
			c0,0.2,0.1,0.4,0.4,0.5c0.2,0.1,0.7,0.2,1.2,0.2c0.6,0,1-0.1,1.2-0.2c0.2-0.1,0.4-0.3,0.4-0.5v-0.1c0-0.2-0.1-0.4-0.4-0.5
			C67.8,33.2,67.4,33.2,66.8,33.2z M73.4,42h-1.8V29h1.8V42z"/>
		<path class="st1" d="M81.4,29.1l-4.3,12.7h-1.7l4.3-12.7H81.4z"/>
		<path class="st1" d="M28.1,48.2h2.8v1.5h-7.4v-1.5h2.9v-1.4h1.8V48.2z M27.2,55c-0.5,0-0.9-0.1-1.3-0.2c-0.4-0.1-0.7-0.3-1-0.5
			c-0.3-0.2-0.5-0.4-0.6-0.7c-0.1-0.3-0.2-0.6-0.2-0.9v-0.4c0-0.3,0.1-0.6,0.2-0.9c0.1-0.3,0.3-0.5,0.6-0.7c0.3-0.2,0.6-0.4,1-0.5
			s0.8-0.2,1.3-0.2c0.5,0,0.9,0.1,1.3,0.2s0.7,0.3,1,0.5c0.3,0.2,0.5,0.4,0.6,0.7c0.1,0.3,0.2,0.6,0.2,0.9v0.4
			c0,0.3-0.1,0.6-0.2,0.9c-0.1,0.3-0.3,0.5-0.6,0.7c-0.3,0.2-0.6,0.4-1,0.5C28.1,55,27.7,55,27.2,55z M25.4,55.7h8.3v4.5h-1.8v-3
			h-6.5V55.7z M27.2,51.5c-0.5,0-0.8,0.1-1.1,0.3c-0.2,0.2-0.4,0.4-0.4,0.6v0.3c0,0.2,0.1,0.4,0.4,0.6c0.2,0.2,0.6,0.3,1.1,0.3
			s0.8-0.1,1.1-0.3c0.2-0.2,0.4-0.4,0.4-0.6v-0.3c0-0.2-0.1-0.4-0.4-0.6C28,51.6,27.7,51.5,27.2,51.5z M33.7,50.3h1.7v1.5h-1.7v3.3
			h-1.8V47h1.8V50.3z"/>
		<path class="st1" d="M48.3,52.8v1.4H36.4v-1.4H48.3z M42.3,50.1c-0.1,0.1-0.2,0.3-0.5,0.4c-0.2,0.2-0.6,0.4-1.2,0.6
			c-0.4,0.2-0.9,0.4-1.3,0.6c-0.5,0.2-1,0.4-1.5,0.6l-0.7-1.4c0.5-0.2,1-0.4,1.5-0.6s1-0.4,1.4-0.7c0.4-0.2,0.8-0.4,1-0.7
			s0.3-0.6,0.3-1v-0.9h1.8v0.9c0,0.4,0.1,0.8,0.3,1c0.2,0.2,0.5,0.5,1,0.7c0.4,0.2,0.9,0.4,1.4,0.7c0.5,0.2,1,0.4,1.5,0.6l-0.7,1.4
			c-0.5-0.2-1-0.4-1.5-0.6c-0.5-0.2-0.9-0.4-1.3-0.6c-0.5-0.2-0.9-0.4-1.1-0.6C42.5,50.3,42.4,50.2,42.3,50.1L42.3,50.1z M46.6,54.9
			V60H38v-5.1h1.8V56h5.1v-1.1H46.6z M44.9,58.6v-1.2h-5.1v1.2H44.9z"/>
		<path class="st1" d="M55.1,53.5c0.3,0.3,0.6,0.7,1,1c0.4,0.3,0.7,0.7,1.1,1l-1.1,1.2c-0.3-0.3-0.6-0.6-0.9-0.9s-0.6-0.6-0.8-0.8
			c-0.3-0.3-0.5-0.5-0.7-0.7c-0.2-0.2-0.3-0.4-0.4-0.5h0c0,0.1-0.2,0.3-0.4,0.6c-0.2,0.2-0.4,0.5-0.7,0.7c-0.3,0.3-0.5,0.5-0.8,0.8
			c-0.3,0.3-0.6,0.6-1,1l-1.2-1.2c0.8-0.7,1.5-1.4,2.1-2.1c0.2-0.2,0.4-0.4,0.5-0.6c0.1-0.2,0.2-0.4,0.3-0.6
			c0.1-0.2,0.1-0.4,0.2-0.7s0.1-0.5,0.1-0.8v-3h1.8v3c0,0.3,0,0.5,0,0.8c0,0.2,0.1,0.4,0.1,0.6c0.1,0.2,0.2,0.4,0.3,0.6
			C54.8,53.1,54.9,53.3,55.1,53.5z M59.7,51.6h1.8v1.5h-1.8V60h-1.8V47h1.8V51.6z"/>
		<path class="st1" d="M63,47.8h6.7v1.5h-2.4v1.1c0,0.2,0,0.3,0,0.5s0.1,0.3,0.1,0.4c0.1,0.1,0.2,0.3,0.3,0.4s0.3,0.3,0.5,0.4
			c0.3,0.2,0.6,0.5,1,0.7c0.3,0.2,0.7,0.5,1,0.7l-1,1.3c-0.3-0.2-0.6-0.4-0.9-0.6c-0.3-0.2-0.6-0.4-0.8-0.6
			c-0.3-0.2-0.5-0.4-0.7-0.6c-0.2-0.2-0.3-0.3-0.3-0.3h0c0,0.1-0.1,0.2-0.3,0.4c-0.2,0.2-0.4,0.4-0.8,0.6c-0.3,0.2-0.6,0.5-0.9,0.7
			c-0.3,0.2-0.6,0.5-1,0.7l-1-1.3c0.4-0.3,0.9-0.6,1.3-0.9c0.4-0.3,0.7-0.6,1-0.9c0.2-0.2,0.4-0.5,0.6-0.7s0.2-0.6,0.2-0.9v-1.1H63
			V47.8z M66.7,58.4h6.7v1.5h-8.5v-4.4h1.8V58.4z M71.4,51.8h-2.1v-1.5h2.1V47h1.8v9.3h-1.8V51.8z"/>
		<path class="st1" d="M81.4,47.1l-4.3,12.7h-1.7l4.3-12.7H81.4z"/>
		<path class="st1" d="M47.8,76.4h-1.9l-1-2.8h-3.4l-1,2.8h-1.8l3.8-10.1H44L47.8,76.4z M41.9,72.1h2.4L43.6,70
			c-0.1-0.3-0.2-0.6-0.3-0.8c-0.1-0.2-0.1-0.5-0.2-0.7c0,0.1-0.1,0.3-0.1,0.4c0,0.1-0.1,0.2-0.1,0.3c0,0.1-0.1,0.2-0.1,0.4
			s-0.1,0.3-0.2,0.5L41.9,72.1z"/>
		<path class="st1" d="M49.4,66.3h3.8c0.6,0,1.1,0.1,1.6,0.2s0.8,0.3,1.1,0.6s0.5,0.6,0.6,0.9c0.1,0.4,0.2,0.7,0.2,1.1v0.3
			c0,0.4-0.1,0.8-0.2,1.2c-0.1,0.4-0.4,0.7-0.6,1s-0.6,0.5-1.1,0.7s-0.9,0.2-1.5,0.2h-2v3.9h-1.8V66.3z M51.2,67.8V71H53
			c0.6,0,1-0.1,1.4-0.3c0.3-0.2,0.5-0.6,0.5-1.2v-0.3c0-0.3,0-0.5-0.1-0.7c-0.1-0.2-0.2-0.3-0.4-0.4c-0.2-0.1-0.3-0.2-0.6-0.2
			s-0.4-0.1-0.7-0.1H51.2z"/>
		<path class="st1" d="M58.6,66.3h3.8c0.6,0,1.1,0.1,1.6,0.2c0.4,0.1,0.8,0.3,1.1,0.6c0.3,0.3,0.5,0.6,0.6,0.9s0.2,0.7,0.2,1.1v0.3
			c0,0.4-0.1,0.8-0.2,1.2c-0.1,0.4-0.4,0.7-0.6,1s-0.6,0.5-1.1,0.7c-0.4,0.2-0.9,0.2-1.5,0.2h-2v3.9h-1.8V66.3z M60.4,67.8V71h1.8
			c0.6,0,1.1-0.1,1.4-0.3c0.3-0.2,0.5-0.6,0.5-1.2v-0.3c0-0.3,0-0.5-0.1-0.7c-0.1-0.2-0.2-0.3-0.4-0.4c-0.2-0.1-0.3-0.2-0.6-0.2
			c-0.2,0-0.4-0.1-0.7-0.1H60.4z"/>
	</g>
</g>
</svg>
