<?xml version="1.0" encoding="utf-8"?>
<!-- Generator: Adobe Illustrator 19.0.0, SVG Export Plug-In . SVG Version: 6.00 Build 0)  -->
<svg version="1.1" id="Layer_1" xmlns="http://www.w3.org/2000/svg" xmlns:xlink="http://www.w3.org/1999/xlink" x="0px" y="0px"
	 width="26px" height="26px" viewBox="0 0 26 26" style="enable-background:new 0 0 26 26;" xml:space="preserve">
<style type="text/css">
	.st0{fill:#333333;}
</style>
<path class="st0" d="M24.3,9.1L13.9,5.9c-0.6-0.2-1.2-0.2-1.8,0L1.7,9.1c-0.9,0.3-0.9,1.4,0,1.7l1.8,0.6c-0.4,0.5-0.6,1.1-0.7,1.8
	c-0.4,0.2-0.6,0.6-0.6,1c0,0.4,0.2,0.7,0.5,1l-1,4.3c-0.1,0.4,0.2,0.7,0.6,0.7h2.1c0.4,0,0.7-0.4,0.6-0.7l-1-4.3
	c0.3-0.2,0.5-0.6,0.5-1c0-0.4-0.2-0.8-0.6-1c0-0.6,0.3-1.1,0.8-1.4l7.3,2.3c0.3,0.1,1,0.2,1.8,0l10.5-3.2
	C25.2,10.6,25.2,9.4,24.3,9.1z M14.2,15.2c-1.1,0.3-2,0.1-2.5,0l-5.4-1.7l-0.5,4.3c0,1.3,3.2,2.4,7.2,2.4c4,0,7.2-1.1,7.2-2.4
	l-0.5-4.3L14.2,15.2z"/>
</svg>
