<?xml version="1.0" encoding="utf-8"?>
<!-- Generator: Adobe Illustrator 19.0.0, SVG Export Plug-In . SVG Version: 6.00 Build 0)  -->
<svg version="1.1" id="Layer_1" xmlns="http://www.w3.org/2000/svg" xmlns:xlink="http://www.w3.org/1999/xlink" x="0px" y="0px"
	 width="12px" height="12px" viewBox="0 0 12 12" style="enable-background:new 0 0 12 12;" xml:space="preserve">
<style type="text/css">
	.st0{fill:#068467;}
</style>
<g id="XMLID_1_">
	<path id="XMLID_3_" class="st0" d="M10.6,6.8v3.8H1.4V6.8H0V12h12V6.8H10.6z"/>
	<path id="XMLID_2_" class="st0" d="M3.3,4.6l2-2v5.2h1.4V2.6l2,2l1-1L7,1L6,0L5,1L2.3,3.7L3.3,4.6z"/>
</g>
</svg>
