<?xml version="1.0" encoding="utf-8"?>
<!-- Generator: Adobe Illustrator 19.0.0, SVG Export Plug-In . SVG Version: 6.00 Build 0)  -->
<svg version="1.1" id="Layer_1" xmlns="http://www.w3.org/2000/svg" xmlns:xlink="http://www.w3.org/1999/xlink" x="0px" y="0px"
	 width="18px" height="18px" viewBox="0 0 18 18" style="enable-background:new 0 0 18 18;" xml:space="preserve">
<style type="text/css">
	.st0{fill:#AAAAAA;}
	.st1{fill:#FFFFFF;}
</style>
<g>
	<g>
		<g>
			<circle id="XMLID_13_" class="st0" cx="9" cy="9" r="8"/>
		</g>
		<polygon class="st1" points="10,10 8,10 7.6,4 10.4,4 		"/>
	</g>
	<rect x="8" y="12" class="st1" width="2" height="2"/>
</g>
</svg>
