<?xml version="1.0" encoding="utf-8"?>
<!-- Generator: Adobe Illustrator 19.0.0, SVG Export Plug-In . SVG Version: 6.00 Build 0)  -->
<svg version="1.1" id="Layer_1" xmlns="http://www.w3.org/2000/svg" xmlns:xlink="http://www.w3.org/1999/xlink" x="0px" y="0px"
	 width="32px" height="32px" viewBox="0 0 32 32" style="enable-background:new 0 0 32 32;" xml:space="preserve">
<style type="text/css">
	.st0{fill:#999999;}
</style>
<g>
	<g>
		<g>
			<path class="st0" d="M30.2,10.4c-1-1-2.7-1-3.7,0c-0.3,0.3-2.3,2.3-2.6,2.6v-7c0-0.7-0.3-1.4-0.8-1.9l-2.5-2.5
				C20.1,1.3,19.4,1,18.7,1H3.6C2.2,1,1,2.2,1,3.6v24.7C1,29.8,2.2,31,3.6,31h17.6c1.5,0,2.6-1.2,2.6-2.6v-7.8l6.4-6.4
				C31.3,13.1,31.3,11.5,30.2,10.4z M18.6,2.8c0.2,0,0.5,0,0.8,0.3l2.5,2.5c0.3,0.3,0.3,0.6,0.3,0.8h-3.5V2.8z M22.1,28.4
				c0,0.5-0.4,0.9-0.9,0.9H3.6c-0.5,0-0.9-0.4-0.9-0.9V3.6c0-0.5,0.4-0.9,0.9-0.9h13.2v4.4c0,0.5,0.4,0.9,0.9,0.9h4.4v6.8
				c0,0-2.6,2.6-2.6,2.6l-1.2,1.2c-0.1,0.1-0.2,0.2-0.2,0.3l-1.2,3.7c-0.1,0.3,0,0.7,0.2,0.9c0.2,0.2,0.6,0.3,0.9,0.2l3.7-1.2
				c0.1,0,0.2-0.1,0.3-0.2l0.1-0.1V28.4z M20.1,19.3l1.2,1.2L20.9,21L19,21.6l0.6-1.9L20.1,19.3z M22.6,19.3l-1.2-1.2
				c0.7-0.7,3.6-3.6,4.2-4.2l1.2,1.2L22.6,19.3z M29,12.9l-0.9,0.9l-1.2-1.2l0.9-0.9c0.3-0.3,0.9-0.3,1.2,0
				C29.3,12,29.3,12.6,29,12.9z"/>
		</g>
	</g>
	<g>
		<g>
			<path id="XMLID_5_" class="st0" d="M17.7,9.8H5.4c-0.5,0-0.9,0.4-0.9,0.9c0,0.5,0.4,0.9,0.9,0.9h12.3c0.5,0,0.9-0.4,0.9-0.9
				C18.6,10.2,18.2,9.8,17.7,9.8z"/>
		</g>
	</g>
	<g>
		<g>
			<path id="XMLID_4_" class="st0" d="M14.2,13.3H5.4c-0.5,0-0.9,0.4-0.9,0.9c0,0.5,0.4,0.9,0.9,0.9h8.8c0.5,0,0.9-0.4,0.9-0.9
				C15.1,13.7,14.7,13.3,14.2,13.3z"/>
		</g>
	</g>
	<g>
		<g>
			<path id="XMLID_3_" class="st0" d="M14.2,16.8H5.4c-0.5,0-0.9,0.4-0.9,0.9c0,0.5,0.4,0.9,0.9,0.9h8.8c0.5,0,0.9-0.4,0.9-0.9
				C15.1,17.2,14.7,16.8,14.2,16.8z"/>
		</g>
	</g>
	<g>
		<g>
			<path id="XMLID_2_" class="st0" d="M14.2,20.3H5.4c-0.5,0-0.9,0.4-0.9,0.9c0,0.5,0.4,0.9,0.9,0.9h8.8c0.5,0,0.9-0.4,0.9-0.9
				C15.1,20.7,14.7,20.3,14.2,20.3z"/>
		</g>
	</g>
	<g>
		<g>
			<path id="XMLID_1_" class="st0" d="M17.7,25.7h-5.3c-0.5,0-0.9,0.4-0.9,0.9c0,0.5,0.4,0.9,0.9,0.9h5.3c0.5,0,0.9-0.4,0.9-0.9
				C18.6,26.1,18.2,25.7,17.7,25.7z"/>
		</g>
	</g>
</g>
</svg>
