<?xml version="1.0" encoding="utf-8"?>
<!-- Generator: Adobe Illustrator 19.0.0, SVG Export Plug-In . SVG Version: 6.00 Build 0)  -->
<svg version="1.1" id="Layer_1" xmlns="http://www.w3.org/2000/svg" xmlns:xlink="http://www.w3.org/1999/xlink" x="0px" y="0px"
	 width="32px" height="32px" viewBox="0 0 32 32" style="enable-background:new 0 0 32 32;" xml:space="preserve">
<style type="text/css">
	.st0{fill:#999999;}
	.st1{fill:#F2F2F2;}
</style>
<g>
	<g>
		<g>
			<path class="st0" d="M15.4,16.6c2-1.2,3.4-3.5,3.4-6c0-3.9-3.2-7.1-7.1-7.1c-3.9,0-7.1,3.2-7.1,7.1c0,2.6,1.3,4.8,3.4,6
				C4.4,17.9,1.7,21,1,24.8h1.8c0.9-4.1,4.5-7.1,8.9-7.1c4.4,0,8,3,8.9,7.1h1.8C21.6,20.9,19,17.8,15.4,16.6z M6.3,10.5
				c0-2.9,2.4-5.3,5.3-5.3c2.9,0,5.3,2.4,5.3,5.3s-2.4,5.3-5.3,5.3C8.7,15.9,6.3,13.5,6.3,10.5z"/>
		</g>
	</g>
	<circle id="XMLID_4_" class="st0" cx="23.8" cy="21.3" r="7.2"/>
	<g>
		<g id="XMLID_1_">
			<g>
				<path id="XMLID_2_" class="st1" d="M27.5,19.9l-3.6,3.6l-0.7,0.7c-0.1,0.1-0.2,0.1-0.3,0.1c-0.1,0-0.2,0-0.3-0.1l-0.7-0.7
					L20,21.7c-0.1-0.1-0.1-0.2-0.1-0.3c0-0.1,0-0.2,0.1-0.3l0.7-0.7c0.1-0.1,0.2-0.1,0.3-0.1c0.1,0,0.2,0,0.3,0.1l1.5,1.5l3.3-3.3
					c0.1-0.1,0.2-0.1,0.3-0.1c0.1,0,0.2,0,0.3,0.1l0.7,0.7c0.1,0.1,0.1,0.2,0.1,0.3C27.6,19.7,27.6,19.8,27.5,19.9z"/>
			</g>
			<g>
			</g>
		</g>
	</g>
</g>
</svg>
