<?xml version="1.0" encoding="utf-8"?>
<!-- Generator: Adobe Illustrator 19.0.0, SVG Export Plug-In . SVG Version: 6.00 Build 0)  -->
<svg version="1.1" id="Layer_1" xmlns="http://www.w3.org/2000/svg" xmlns:xlink="http://www.w3.org/1999/xlink" x="0px" y="0px"
	 width="30px" height="30px" viewBox="0 0 30 30" style="enable-background:new 0 0 30 30;" xml:space="preserve">
<style type="text/css">
	.st0{fill:#FFFFFF;}
</style>
<g>
	<path class="st0" d="M22,13.9L11.4,7.4c-1-0.5-2.2,0.2-2.2,1.3v12.6c0,1.1,1.2,1.8,2.2,1.3L22,16.5C23,15.9,23,14.5,22,13.9z
		 M30,15c0-8.3-6.7-15-15-15S0,6.7,0,15s6.7,15,15,15S30,23.3,30,15z M2.9,15C2.9,8.3,8.3,2.9,15,2.9S27.1,8.3,27.1,15
		c0,6.7-5.4,12.1-12.1,12.1S2.9,21.7,2.9,15z"/>
</g>
</svg>
