<?xml version="1.0" encoding="utf-8"?>
<!-- Generator: Adobe Illustrator 19.0.0, SVG Export Plug-In . SVG Version: 6.00 Build 0)  -->
<svg version="1.1" id="Layer_1" xmlns="http://www.w3.org/2000/svg" xmlns:xlink="http://www.w3.org/1999/xlink" x="0px" y="0px"
	 width="60px" height="60px" viewBox="0 0 60 60" style="enable-background:new 0 0 60 60;" xml:space="preserve">
<style type="text/css">
	.st0{fill:#333333;}
</style>
<g>
	<path class="st0" d="M48.8,19.1h-0.4c-0.2-1.9-1.8-3.5-3.7-3.7c-0.2-2.1-2-3.7-4.1-3.7H13.9c-3.6,0-6.4,2.9-6.4,6.4v18.6
		c0,2.2,1.7,3.9,3.8,4.1c0.2,2.1,2,3.7,4.1,3.7c0,0.4,0.1,0.7,0.2,1.1c0.5,1.5,1.9,2.6,3.6,2.6h29.7c2.1,0,3.7-1.7,3.7-3.7V22.8
		C52.5,20.7,50.8,19.1,48.8,19.1z M50.7,22.8v14.4l-3.8-2.9c-1-0.8-2.5-0.8-3.5,0l-4.8,3.5l-9.2-9.5c-1.1-1.1-2.9-1.2-4.1-0.2
		l-8.2,7.2V22.8c0-1.1,0.9-2,2-2h29.7C49.9,20.8,50.7,21.7,50.7,22.8z M50.7,44.6c0,1.1-0.9,2-2,2H19.1c-0.9,0-1.6-0.6-1.9-1.4
		c-0.1-0.2-0.1-0.4-0.1-0.6v-6.9l9.4-8.2c0.5-0.4,1.2-0.4,1.6,0.1l4.2,4.3l0,0l8.3,8.5c0.2,0.2,0.4,0.3,0.6,0.3
		c0.2,0,0.4-0.1,0.6-0.2c0.3-0.3,0.4-0.9,0-1.2l-2-2l4.6-3.4c0.4-0.3,1-0.3,1.4,0l4.9,3.7V44.6z M13,40.5V19.7c0-0.1,0-0.2,0-0.3
		c0.1-1.3,1.2-2.3,2.5-2.3h10.8c0.5,0,0.9-0.4,0.9-0.9c0-0.5-0.4-0.9-0.9-0.9H15.6c-2.4,0-4.3,1.9-4.3,4.3v19.4
		c-1.1-0.2-2-1.2-2-2.4V18.1c0-2.6,2.1-4.7,4.7-4.7h26.6c1.2,0,2.1,0.8,2.4,1.9h-9.5c-0.5,0-0.9,0.4-0.9,0.9c0,0.5,0.4,0.9,0.9,0.9
		h10.5h0h0.5c1.2,0,2.1,0.8,2.4,1.9H19.1c-2.1,0-3.7,1.7-3.7,3.7v14.5v0v5.6C14,42.8,13,41.8,13,40.5z"/>
	<path class="st0" d="M41.6,24.4c-2.1,0-3.8,1.7-3.8,3.8c0,2.1,1.7,3.8,3.8,3.8c2.1,0,3.8-1.7,3.8-3.8
		C45.4,26.1,43.7,24.4,41.6,24.4z M41.6,30.2c-1.1,0-2-0.9-2-2c0-1.1,0.9-2,2-2s2,0.9,2,2C43.7,29.3,42.8,30.2,41.6,30.2z"/>
	<path id="XMLID_1_" class="st0" d="M29,16.6c0,0.1,0,0.1,0.1,0.2c0,0,0.1,0.1,0.1,0.1c0,0,0.1,0.1,0.1,0.1c0,0,0.1,0.1,0.2,0.1
		c0.1,0,0.1,0,0.2,0.1c0.1,0,0.1,0,0.2,0s0.1,0,0.2,0c0.1,0,0.1,0,0.2-0.1c0.1,0,0.1,0,0.2-0.1c0,0,0.1-0.1,0.1-0.1
		c0,0,0.1-0.1,0.1-0.1c0,0,0.1-0.1,0.1-0.2c0-0.1,0-0.1,0.1-0.2c0-0.1,0-0.1,0-0.2s0-0.1,0-0.2c0-0.1,0-0.1-0.1-0.2
		c0-0.1,0-0.1-0.1-0.2c0,0-0.1-0.1-0.1-0.1c0,0-0.1-0.1-0.1-0.1c0,0-0.1-0.1-0.2-0.1c-0.1,0-0.1,0-0.2-0.1c-0.1,0-0.2,0-0.3,0
		c-0.1,0-0.1,0-0.2,0.1c-0.1,0-0.1,0-0.2,0.1c0,0-0.1,0.1-0.1,0.1c0,0-0.1,0.1-0.1,0.1c0,0-0.1,0.1-0.1,0.2c0,0.1,0,0.1,0,0.2
		c0,0.1,0,0.1,0,0.2s0,0.1,0,0.2C29,16.5,29,16.6,29,16.6z"/>
</g>
</svg>
